607_Project1_DylanGold
…
Some ways I could further improve this project is work more with how winning and losing in a match up effected the players post-tournament rating. As well as explore how the player matches were determined. It would be difficult to apply the same parsing to another text file of different format but exploring other data sources with new regex could also be interesting.

This segment was added later for a future assignment

We need to export the data again this time with the opponent values.

You can not export a data frame with list values, I collapse the list with “-” in between. We can parse this in the next assignment.

player_data_new <- player_data %>%
  mutate(
    opponents = paste(opponents, collapse='-')
  )
player_data_new

# A tibble: 64 × 7
# Rowwise: 
   number name                state points rating opponents  avg_opponent_rating
    <int> <chr>               <chr>  <dbl>  <dbl> <chr>                    <dbl>
 1      1 Gary Hua            ON       6     1794 39-21-18-…               1605.
 2      2 Dakshesh Daruri     MI       6     1553 63-58-4-1…               1469.
 3      3 Aditya Bajaj        MI       6     1384 8-61-25-2…               1564.
 4      4 Patrick H Schilling MI       5.5   1716 23-28-2-2…               1574.
 5      5 Hanshi Zuo          MI       5.5   1655 45-37-12-…               1501.
 6      6 Hansen Song         OH       5     1686 34-29-11-…               1519.
 7      7 Gary Dee Swathell   MI       5     1649 57-46-13-…               1372.
 8      8 Ezekiel Houghton    MI       5     1641 3-32-14-9…               1468.
 9      9 Stefano Lee         ON       5     1411 25-18-59-…               1523.
10     10 Anvit Rao           MI       5     1365 16-19-55-…               1554.
# ℹ 54 more rows
…
